{
  "required": true,
  "package": "one.krake.hyperintelligentsnail.mixin",
  "compatibilityLevel": "JAVA_8",
  "mixins": [
    "PathfindMixin"
  ],
  "client": [
    "PathfindMixin"
  ],
  "injectors": {
    "defaultRequire": 1
  }
}
